Chapter 5 Cleaning Data I | Data Wrangling for Economists
…
From here you can see that the survival rate greatly varied across different classes. It appears that survival was much more prevalent for higher class people. An interesting result! Let’s also review what is happening here in the language of pipes:

Take the titanic data

And now group by class

And now summarize the survival rate by creating a column equal to the mean of the survived column within each class.

You may be curious what happens when you do a group_by without a summarize. The truth is, nothing happens! R will create a grouping, but it means nothing unless you actually perform some sort of meaningful statistic on each group.

## using a group_by without a summarize or following function does nothing
titanic %>% 
  group_by(sex)

## # A tibble: 891 × 13
## # Groups:   sex [2]
##    passenger_id survived pclass name       sex     age sib_sp parch ticket  fare
##           <int>    <int>  <int> <chr>      <chr> <dbl>  <int> <int> <chr>  <dbl>
##  1            1        0      3 Braund, M… male     22      1     0 A/5 2…  7.25
##  2            2        1      1 Cumings, … fema…    38      1     0 PC 17… 71.3 
##  3            3        1      3 Heikkinen… fema…    26      0     0 STON/…  7.92
##  4            4        1      1 Futrelle,… fema…    35      1     0 113803 53.1 
##  5            5        0      3 Allen, Mr… male     35      0     0 373450  8.05
##  6            6        0      3 Moran, Mr… male     NA      0     0 330877  8.46
##  7            7        0      1 McCarthy,… male     54      0     0 17463  51.9 
##  8            8        0      3 Palsson, … male      2      3     1 349909 21.1 
##  9            9        1      3 Johnson, … fema…    27      0     2 347742 11.1 
## 10           10        1      2 Nasser, M… fema…    14      1     0 237736 30.1 
## # … with 881 more rows, and 3 more variables: cabin <chr>, embarked <chr>,
## #   child <dbl>
…
