Chapter 5 Data Cleaning II | Guided Exercises: Piping and Other Common Functions
…
## # A tibble: 1 × 2
##   movie_rating     n
##   <chr>        <int>
## 1 <NA>          1877

While this is useful, it might be even more useful if we filter out the NAs. Observe:

## Filtering out the NAs
horror_movies %>% 
  count(review_rating, sort = T) %>% 
  filter(!is.na(review_rating))

## # A tibble: 87 × 2
##    review_rating     n
##            <dbl> <int>
##  1           4.7    95
##  2           5.2    89
##  3           5.7    89
##  4           4.8    83
##  5           5      83
##  6           4.6    82
##  7           5.6    81
##  8           4.3    80
##  9           5.1    78
## 10           5.3    78
## # … with 77 more rows
…
Notice that now we are looking at movies that have a 9.0 or higher movie rating, and were released in Canada. We can see that there are only 2 movies that match these criteria.

On the other hand, suppose we used the | logical operator instead. The | operator will evaluate whether “review rating is great than 9.0” is TRUE, or “release country is Canada” is TRUE. If either of these statements are TRUE or both of these are TRUE, then the data is displayed. If both of these are false, then they are filtered out. Observe:

horror_movies %>% 
  filter(review_rating >= 9.0 | release_country == "Canada") %>% 
  count(review_rating, release_country,  sort = T)

## # A tibble: 52 × 3
##    review_rating release_country     n
##            <dbl> <chr>           <int>
##  1          NA   Canada              7
##  2           9   USA                 5
##  3           4.4 Canada              4
##  4           4.5 Canada              4
##  5           2.4 Canada              3
##  6           3.3 Canada              3
##  7           4.9 Canada              3
##  8           9.1 USA                 3
##  9           3.4 Canada              2
## 10           4   Canada              2
## # … with 42 more rows
…
