Chapter 3 Intro to R | Data Wrangling for Economists
…
## this is currently a data frame - it does not have nice features to view the data or see the data types
## the code output is suppressed here to make this document shorter
titanic

The titanic data set is currently a data frame, and hence, it is difficult to view. Let’s change it to a tibble:

## changing the titanic data frame to a tibble
titanic <- tibble(titanic)

Now that we’ve changed titanic to a tibble, it has nicer previewing features. Observe what happens when we preview the data:

## previewing the data
titanic

## # A tibble: 891 × 12
##    PassengerId Survived Pclass Name   Sex     Age SibSp Parch Ticket  Fare Cabin
##          <int>    <int>  <int> <chr>  <chr> <dbl> <int> <int> <chr>  <dbl> <chr>
##  1           1        0      3 Braun… male     22     1     0 A/5 2…  7.25 ""   
##  2           2        1      1 Cumin… fema…    38     1     0 PC 17… 71.3  "C85"
##  3           3        1      3 Heikk… fema…    26     0     0 STON/…  7.92 ""   
##  4           4        1      1 Futre… fema…    35     1     0 113803 53.1  "C12…
##  5           5        0      3 Allen… male     35     0     0 373450  8.05 ""   
##  6           6        0      3 Moran… male     NA     0     0 330877  8.46 ""   
##  7           7        0      1 McCar… male     54     0     0 17463  51.9  "E46"
##  8           8        0      3 Palss… male      2     3     1 349909 21.1  ""   
##  9           9        1      3 Johns… fema…    27     0     2 347742 11.1  ""   
## 10          10        1      2 Nasse… fema…    14     1     0 237736 30.1  ""   
## # … with 881 more rows, and 1 more variable: Embarked <chr>
…
