Chapter 8 Relational Data | Guided Exercises: Relational Data
…
sex - the sex of the child

name - the name of the child

prop - a weighting variable we do not care about

We want to uniquely identify an observation. This is where we need intuition as well as our algorithm. Would name uniquely identify an observation? No. A name can appear in many different years. Observe our algorithm:

## checking if name uniquely identifies the data 
babynames %>% 
  count(name) %>% 
  filter(n >1)

## # A tibble: 2,728 × 2
##    name        n
##    <chr>   <int>
##  1 Aaron       9
##  2 Ab          4
##  3 Abbie      10
##  4 Abbott      2
##  5 Abby        8
##  6 Abe         9
##  7 Abel        9
##  8 Abigail     9
##  9 Abner       9
## 10 Abraham     9
## # … with 2,718 more rows

Clearly, we see that there are multiple times a name appears. Hence, we must use a collection of columns to uniquely identify (recall our algorithm).

Our intuition should tell us that using name and year may allow us to uniquely identify our data since each name likely occurs one time within each year. As always, our algorithm can check this assumption:

## checking if name and year uniquely identifies the data
babynames %>% 
  count(name, year) %>% 
  filter(n>1)

## # A tibble: 1,245 × 3
##    name   year     n
##    <chr> <dbl> <int>
##  1 Abbie  1887     2
##  2 Ada    1885     2
##  3 Ada    1886     2
##  4 Ada    1887     2
##  5 Addie  1880     2
##  6 Addie  1881     2
##  7 Addie  1882     2
##  8 Addie  1883     2
##  9 Addie  1884     2
## 10 Addie  1886     2
## # … with 1,235 more rows
…
