Chapter 10 Strings | Data Wrangling for Economists
…
Notice that it looks like each movie title is followed by a whitespace, and then a parenthesis with the movie release year inside of it. For the purposes of explaining extract, we will focus on extracting the dates from the title column.

The extract function extracts information you want from a column and puts it into a column of your choice. The specific arguments it has are col, into, and regex. These correspond to the column you want to extract an expression from, the column name you are going to send your extracted expression into, and the regular expression pattern you want to extract respectively.

## extracting the year from the 
horror_movies %>% 
  extract(col = title, into = "year", regex = "(\\d\\d\\d\\d)")

## # A tibble: 3,328 × 2
##    year  release_date
##    <chr> <chr>       
##  1 2012  26-Oct-12   
##  2 2017  13-Jan-17   
##  3 2017  21-Oct-17   
##  4 2013  23-Apr-13   
##  5 2015  10-Apr-15   
##  6 2017  2017        
##  7 2013  3-Jun-14    
##  8 2015  25-Apr-15   
##  9 2015  28-May-17   
## 10 2016  7-Oct-16    
## # ℹ 3,318 more rows

It is important to note that we need to put parenthesis around the pattern that we want to match in our regex argument for the match to work. Observe what happens when we do not:

## code does not work because no parenthesis around the regex expression
horror_movies %>% 
  extract(col = title, into = "year", regex = "\\d\\d\\d\\d")

This is because the parenthesis define a group of patterns that you want to match. Everything inside your parenthesis is a group. For the purposes of this class, we will only be extracting 1 group, as extracting more than one group gets very complicated.

## the correct code: works because we put parenthesis around the regex expression
horror_movies %>% 
  extract(col = title, into = "year", regex = "(\\d\\d\\d\\d)")

## # A tibble: 3,328 × 2
##    year  release_date
##    <chr> <chr>       
##  1 2012  26-Oct-12   
##  2 2017  13-Jan-17   
##  3 2017  21-Oct-17   
##  4 2013  23-Apr-13   
##  5 2015  10-Apr-15   
##  6 2017  2017        
##  7 2013  3-Jun-14    
##  8 2015  25-Apr-15   
##  9 2015  28-May-17   
## 10 2016  7-Oct-16    
## # ℹ 3,318 more rows

Notice when we ran the previous correct code, our title column disappeared. This is because by default, the extract function deletes the original column. To avoid this, we can set the remove argument to FALSE.

## the correct code: works because we put parenthesis around the regex expression
horror_movies %>% 
  extract(col = title, into = "year", regex = "(\\d\\d\\d\\d)", remove = F)

## # A tibble: 3,328 × 3
##    title                               year  release_date
##    <chr>                               <chr> <chr>       
##  1 Gut (2012)                          2012  26-Oct-12   
##  2 The Haunting of Mia Moss (2017)     2017  13-Jan-17   
##  3 Sleepwalking (2017)                 2017  21-Oct-17   
##  4 Treasure Chest of Horrors II (2013) 2013  23-Apr-13   
##  5 Infidus (2015)                      2015  10-Apr-15   
##  6 In Extremis (2017)                  2017  2017        
##  7 Ghostlight (2013)                   2013  3-Jun-14    
##  8 Parasyte: Part 2 (2015)             2015  25-Apr-15   
##  9 Stranger in the House (2015)        2015  28-May-17   
## 10 Tutak Tutak Tutiya (2016)           2016  7-Oct-16    
## # ℹ 3,318 more rows
…
The separate function will split a column into multiple columns based on a regular expression. You can think of separate as a way to split with a more complicated delimiter (a delimiter is a character that separates values). For starters, we will separate once again look at the title column in the horror movies data. Recall that the title column is organized as the movie title, followed by a blank space and then the year of release in parenthesis. We will take advantage of this unique organization and separate our title column into two columns: title which will have the title of the movie, and year which will have the release year. While this will take multiple steps to get into a perfectly cleaned data set, we can utilize our piping procedures to make it relatively straightforward.

First, let’s separate the column based on the first parenthesis that we see.

## separating on the first parenthesis in the title column
horror_movies %>% 
  separate(col = title, into = c("title","year"), sep = "\\(") 

## Warning: Expected 2 pieces. Additional pieces discarded in 7 rows [691, 928, 1289, 2086, 2130,
## 2545, 3262].

## Warning: Expected 2 pieces. Missing pieces filled with `NA` in 1 rows [932].

## # A tibble: 3,328 × 3
##    title                           year  release_date
##    <chr>                           <chr> <chr>       
##  1 "Gut "                          2012) 26-Oct-12   
##  2 "The Haunting of Mia Moss "     2017) 13-Jan-17   
##  3 "Sleepwalking "                 2017) 21-Oct-17   
##  4 "Treasure Chest of Horrors II " 2013) 23-Apr-13   
##  5 "Infidus "                      2015) 10-Apr-15   
##  6 "In Extremis "                  2017) 2017        
##  7 "Ghostlight "                   2013) 3-Jun-14    
##  8 "Parasyte: Part 2 "             2015) 25-Apr-15   
##  9 "Stranger in the House "        2015) 28-May-17   
## 10 "Tutak Tutak Tutiya "           2016) 7-Oct-16    
## # ℹ 3,318 more rows
…
Clearly we missed something: not all the movies have the same format of MOVIE TITLE (YEAR). It appears that the movie “American Exorcist” in row 932 did not have a date attached to it. Therefore, when we tried to separate by parenthesis, R was unable to perform this task and replaced the value with NA. In our case, this wouldn’t have affected our analysis since there was no date attached to it, but we would want to find another way to extract the date from another column. However, as before, we will ignore this warning message since fixing it will take a lot of time in effort. It is important to realize that you must read and investigate warning messages since R constantly performs operations on your data that may not be exactly what you intend.

Moving on, let’s start solving our second task: getting rid of the extra parenthesis in the year column. Recall, we can actually use the extract function here to remove the final parenthesis. We can do this all in one step using a pipe.

## separating on the first parenthesis in the title column and then extracting the four numbers for date
horror_movies %>% 
  separate(col = title, into = c("title","year"), sep = "\\(") %>% 
  extract(col = year, into = "year", regex = "(\\d\\d\\d\\d)") 

## Warning: Expected 2 pieces. Additional pieces discarded in 7 rows [691, 928, 1289, 2086, 2130,
## 2545, 3262].

## Warning: Expected 2 pieces. Missing pieces filled with `NA` in 1 rows [932].

## # A tibble: 3,328 × 3
##    title                           year  release_date
##    <chr>                           <chr> <chr>       
##  1 "Gut "                          2012  26-Oct-12   
##  2 "The Haunting of Mia Moss "     2017  13-Jan-17   
##  3 "Sleepwalking "                 2017  21-Oct-17   
##  4 "Treasure Chest of Horrors II " 2013  23-Apr-13   
##  5 "Infidus "                      2015  10-Apr-15   
##  6 "In Extremis "                  2017  2017        
##  7 "Ghostlight "                   2013  3-Jun-14    
##  8 "Parasyte: Part 2 "             2015  25-Apr-15   
##  9 "Stranger in the House "        2015  28-May-17   
## 10 "Tutak Tutak Tutiya "           2016  7-Oct-16    
## # ℹ 3,318 more rows
Finally, let’s satisfy (2) and get rid of the whitespace that is at the end of our title column. Luckily, the stringr package has a pre-programmed function called stringr::str_trim that will trim the whitespace off the end of our column. Now we can perform the entire cleaning of the title column in one piping procedure:

## separating on the first parenthesis in the title column and then extracting the four numbers for date
## and then removing the whitespace that is left over
horror_movies %>% 
  separate(col = title, into = c("title","year"), sep = "\\(") %>% 
  extract(col = year, into = "year", regex = "(\\d\\d\\d\\d)") %>% 
  mutate(title = str_trim(title))

## Warning: Expected 2 pieces. Additional pieces discarded in 7 rows [691, 928, 1289, 2086, 2130,
## 2545, 3262].

## Warning: Expected 2 pieces. Missing pieces filled with `NA` in 1 rows [932].

## # A tibble: 3,328 × 3
##    title                        year  release_date
##    <chr>                        <chr> <chr>       
##  1 Gut                          2012  26-Oct-12   
##  2 The Haunting of Mia Moss     2017  13-Jan-17   
##  3 Sleepwalking                 2017  21-Oct-17   
##  4 Treasure Chest of Horrors II 2013  23-Apr-13   
##  5 Infidus                      2015  10-Apr-15   
##  6 In Extremis                  2017  2017        
##  7 Ghostlight                   2013  3-Jun-14    
##  8 Parasyte: Part 2             2015  25-Apr-15   
##  9 Stranger in the House        2015  28-May-17   
## 10 Tutak Tutak Tutiya           2016  7-Oct-16    
## # ℹ 3,318 more rows
…
